^D:\PROGECT 3 C++\LESSON14\LESSON14\DEBUG\LESSON14.OBJ
D:\PROGECT 3 C++\LESSON14\DEBUG\LESSON14.EXE
D:\PROGECT 3 C++\LESSON14\LESSON14\DEBUG\LESSON14.ILK
D:\PROGECT 3 C++\LESSON14\DEBUG\LESSON14.PDB
