^D:\PROGECT 3 C++\LESSON14\LESSON14\RELEASE\LESSON14.OBJ
C:\PROGRAM FILES (X86)\WINDOWS KITS\10\LIB\10.0.20348.0\UM\X86\KERNEL32.LIB
C:\PROGRAM FILES (X86)\WINDOWS KITS\10\LIB\10.0.20348.0\UM\X86\USER32.LIB
C:\PROGRAM FILES (X86)\WINDOWS KITS\10\LIB\10.0.20348.0\UM\X86\GDI32.LIB
C:\PROGRAM FILES (X86)\WINDOWS KITS\10\LIB\10.0.20348.0\UM\X86\WINSPOOL.LIB
C:\PROGRAM FILES (X86)\WINDOWS KITS\10\LIB\10.0.20348.0\UM\X86\COMDLG32.LIB
C:\PROGRAM FILES (X86)\WINDOWS KITS\10\LIB\10.0.20348.0\UM\X86\ADVAPI32.LIB
C:\PROGRAM FILES (X86)\WINDOWS KITS\10\LIB\10.0.20348.0\UM\X86\SHELL32.LIB
C:\PROGRAM FILES (X86)\WINDOWS KITS\10\LIB\10.0.20348.0\UM\X86\OLE32.LIB
C:\PROGRAM FILES (X86)\WINDOWS KITS\10\LIB\10.0.20348.0\UM\X86\OLEAUT32.LIB
C:\PROGRAM FILES (X86)\WINDOWS KITS\10\LIB\10.0.20348.0\UM\X86\UUID.LIB
C:\PROGRAM FILES (X86)\WINDOWS KITS\10\LIB\10.0.20348.0\UM\X86\ODBC32.LIB
C:\PROGRAM FILES (X86)\WINDOWS KITS\10\LIB\10.0.20348.0\UM\X86\ODBCCP32.LIB
D:\PROGECT 3 C++\LESSON14\LESSON14\RELEASE\LESSON14.OBJ
C:\WINDOWS\GLOBALIZATION\SORTING\SORTDEFAULT.NLS
D:\PROGRAMS\VISUALSTUDIOCOMMUNITY2019\VC\TOOLS\MSVC\14.29.30037\BIN\HOSTX86\X86\C2.DLL
D:\PROGRAMS\VISUALSTUDIOCOMMUNITY2019\VC\TOOLS\MSVC\14.29.30037\LIB\X86\MSVCPRT.LIB
D:\PROGRAMS\VISUALSTUDIOCOMMUNITY2019\VC\TOOLS\MSVC\14.29.30037\LIB\X86\MSVCRT.LIB
D:\PROGRAMS\VISUALSTUDIOCOMMUNITY2019\VC\TOOLS\MSVC\14.29.30037\LIB\X86\OLDNAMES.LIB
D:\PROGRAMS\VISUALSTUDIOCOMMUNITY2019\VC\TOOLS\MSVC\14.29.30037\LIB\X86\VCRUNTIME.LIB
C:\PROGRAM FILES (X86)\WINDOWS KITS\10\LIB\10.0.20348.0\UCRT\X86\UCRT.LIB
D:\PROGRAMS\VISUALSTUDIOCOMMUNITY2019\VC\TOOLS\MSVC\14.29.30037\BIN\HOSTX86\X86\1033\LINKUI.DLL
D:\PROGRAMS\VISUALSTUDIOCOMMUNITY2019\VC\TOOLS\MSVC\14.29.30037\BIN\HOSTX86\X86\CVTRES.EXE
C:\WINDOWS\SYSTEM32\TZRES.DLL
